module userLoginSignup

go 1.17

require (
	github.com/VividCortex/mysqlerr v1.0.0
	github.com/go-sql-driver/mysql v1.6.0
	github.com/gorilla/pat v1.0.1
	github.com/gorilla/sessions v1.2.1
	github.com/markbates/goth v1.68.0
	golang.org/x/crypto v0.0.0-20200622213623-75b288015ac9
)

require (
	cloud.google.com/go v0.67.0 // indirect
	github.com/golang/protobuf v1.4.2 // indirect
	github.com/gorilla/context v1.1.1 // indirect
	github.com/gorilla/mux v1.6.2 // indirect
	github.com/gorilla/securecookie v1.1.1 // indirect
	golang.org/x/net v0.0.0-20200930145003-4acb6c075d10 // indirect
	golang.org/x/oauth2 v0.0.0-20200902213428-5d25da1a8d43 // indirect
	google.golang.org/appengine v1.6.6 // indirect
	google.golang.org/protobuf v1.25.0 // indirect
)
